{
    "2024-01-29": 248,
    "2024-02-05": 0,
    "2024-02-12": 227,
    "2024-02-19": 114,
    "2024-02-26": 0,
    "2024-03-04": 819,
    "2024-03-11": 1457,
    "2024-03-18": 698,
    "2024-03-25": 566,
    "2024-04-01": 492,
    "2024-04-08": 524,
    "2024-04-15": 458,
    "2024-04-22": 542,
    "2024-04-29": 644,
    "2024-05-06": 1159
}