{
    "2024-01-29": 1403,
    "2024-02-05": 1276,
    "2024-02-12": 1086,
    "2024-02-19": 1108,
    "2024-02-26": 1099,
    "2024-03-04": 1111,
    "2024-03-11": 915,
    "2024-03-18": 941,
    "2024-03-25": 930,
    "2024-04-01": 944,
    "2024-04-08": 6023,
    "2024-04-15": 2275,
    "2024-04-22": 2238,
    "2024-04-29": 3044,
    "2024-05-06": 1981
}