{
    "2024-01-29": 7736,
    "2024-02-05": 6991,
    "2024-02-12": 7982,
    "2024-02-19": 7221,
    "2024-02-26": 6745,
    "2024-03-04": 6582,
    "2024-03-11": 6595,
    "2024-03-18": 6350,
    "2024-03-25": 10312,
    "2024-04-01": 8387,
    "2024-04-08": 7163,
    "2024-04-15": 7189,
    "2024-04-22": 9106,
    "2024-04-29": 26626,
    "2024-05-06": 17328
}