{
  "errors": {
    "400": {
      "hits": 184,
      "paths": {
        "": 113
      }
    }
  },
  "firstProcessedDate": "2024-03-26T00:00:35+00:00",
  "hits": 3652,
  "hitsPerCountry": {
    "AT": 115,
    "DE": 551,
    "NL": 552,
    "PL": 163,
    "RU": 183,
    "US": 1363
  },
  "hitsPerLanguage": {
    "?": 3525,
    "en": 127
  },
  "lastProcessedDate": "2024-03-31T23:59:14+00:00",
  "paths": {
    "/": {
      "hits": 2313,
      "hitsPerCountry": {
        "AT": 115,
        "DE": 521,
        "NL": 534,
        "PL": 157,
        "US": 403
      }
    },
    "/users/sign_in": {
      "hits": 128
    }
  },
  "queries": {
    "": {
      "hits": 187
    }
  },
  "weekStartDate": "2024-03-25T00:00:00+00:00"
}