{
  "errors": {
    "400": {
      "hits": 228,
      "paths": {
        "": 147
      }
    }
  },
  "firstProcessedDate": "2024-03-19T00:05:03+00:00",
  "hits": 3654,
  "hitsPerCountry": {
    "AR": 128,
    "AT": 101,
    "DE": 562,
    "FR": 100,
    "GB": 101,
    "KR": 130,
    "NL": 528,
    "PL": 138,
    "RU": 122,
    "US": 1076
  },
  "hitsPerLanguage": {
    "?": 3273,
    "en": 381
  },
  "lastProcessedDate": "2024-03-24T23:58:30+00:00",
  "paths": {
    "/": {
      "hits": 2298,
      "hitsPerCountry": {
        "AT": 101,
        "DE": 548,
        "NL": 503,
        "PL": 138,
        "US": 400
      }
    }
  },
  "queries": {
    "": {
      "hits": 422,
      "hitsPerCountry": {
        "AR": 127,
        "KR": 128,
        "US": 134
      }
    }
  },
  "weekStartDate": "2024-03-18T00:00:00+00:00"
}